<?xml version="1.0" encoding="utf-8"?>
<!-- Designed by Vexels.com - 2019 All Rights Reserved - https://vexels.com/terms-and-conditions/  -->
<svg version="1.1" id="Capa_1" xmlns="http://www.w3.org/2000/svg" xmlns:xlink="http://www.w3.org/1999/xlink" x="0px" y="0px"
	 viewBox="0 0 1200 1200" enable-background="new 0 0 1200 1200" xml:space="preserve">
<g>
	<path fill="#BEE1E6" d="M1138,1049.638H139.36c-6.6,0-12-5.4-12-12V315.323c0-6.6,5.4-12,12-12H1138c6.6,0,12,5.4,12,12v722.315
		C1150,1044.238,1144.6,1049.638,1138,1049.638z"/>
	<g>
		<path fill="#282828" d="M712.783,313.089h-77.077v-77.069c0-6.186-5.019-11.205-11.205-11.205H536.22
			c-6.186,0-11.205,5.019-11.205,11.205v77.069h-77.069c-6.186,0-11.205,5.019-11.205,11.205v88.282
			c0,6.186,5.019,11.205,11.205,11.205h77.069v77.077c0,6.186,5.019,11.205,11.205,11.205h88.282
			c6.186,0,11.205-5.019,11.205-11.205V423.78h77.077c6.186,0,11.205-5.019,11.205-11.205v-88.282
			C723.988,318.107,718.969,313.089,712.783,313.089z M701.578,401.37h-77.077c-6.186,0-11.205,5.019-11.205,11.205v77.077h-65.872
			v-77.077c0-6.186-5.019-11.205-11.205-11.205H459.15v-65.872h77.069c6.186,0,11.205-5.019,11.205-11.205v-77.069h65.872v77.069
			c0,6.186,5.019,11.205,11.205,11.205h77.077V401.37z"/>
		<path fill="#282828" d="M1095.701,593.326c0.019-0.268,0.08-0.523,0.08-0.796V204.097c0-6.186-5.019-11.205-11.205-11.205H834.336
			V92.049c0-6.186-5.019-11.205-11.205-11.205H322.65c-6.186,0-11.205,5.019-11.205,11.205v100.843H61.205
			c-6.186,0-11.205,5.019-11.205,11.205V592.53c0,0.272,0.061,0.527,0.08,0.795v133.662v73.904c-0.019,0.268-0.08,0.523-0.08,0.795
			v306.264c0,6.186,5.019,11.205,11.205,11.205h1023.372c6.186,0,11.205-5.019,11.205-11.205V801.686
			c0-0.273-0.061-0.529-0.08-0.797v-73.902V593.326z M561.686,812.891v283.855H427.228V812.891H561.686z M584.095,812.891h134.458
			v283.855H584.095V812.891z M72.49,790.482v-52.289h1000.802v52.289H72.49z M322.65,603.735h500.481h250.16v112.048H72.49V603.735
			H322.65z M72.41,215.302h239.036v328.922v15.049c0,6.186,5.019,11.205,11.205,11.205c6.186,0,11.205-5.019,11.205-11.205v-15.049
			V204.097V103.254h478.071v100.843V558.77v2.677c0,6.186,5.019,11.205,11.205,11.205s11.205-5.019,11.205-11.205v-2.677V215.302
			h239.036v366.023h-250.24H322.65H72.41V215.302z M72.41,812.891h332.409v283.855H72.41V812.891z M1073.372,1096.746H740.963
			V812.891h332.409V1096.746z"/>
		<path fill="#282828" d="M861.728,558.916h56.024c6.186,0,11.205-5.019,11.205-11.205s-5.019-11.205-11.205-11.205h-44.819v-48.554
			c0-6.186-5.019-11.205-11.205-11.205s-11.205,5.019-11.205,11.205v59.759C850.523,553.897,855.542,558.916,861.728,558.916z"/>
		<path fill="#282828" d="M996.185,558.916h56.024c6.186,0,11.205-5.019,11.205-11.205s-5.019-11.205-11.205-11.205h-44.819v-48.554
			c0-6.186-5.019-11.205-11.205-11.205s-11.205,5.019-11.205,11.205v59.759C984.981,553.897,989.999,558.916,996.185,558.916z"/>
		<path fill="#282828" d="M861.728,434.773h56.024c6.186,0,11.205-5.019,11.205-11.205c0-6.186-5.019-11.205-11.205-11.205h-44.819
			v-48.554c0-6.186-5.019-11.205-11.205-11.205s-11.205,5.019-11.205,11.205v59.759
			C850.523,429.754,855.542,434.773,861.728,434.773z"/>
		<path fill="#282828" d="M996.185,434.773h56.024c6.186,0,11.205-5.019,11.205-11.205c0-6.186-5.019-11.205-11.205-11.205h-44.819
			v-48.554c0-6.186-5.019-11.205-11.205-11.205s-11.205,5.019-11.205,11.205v59.759
			C984.981,429.754,989.999,434.773,996.185,434.773z"/>
		<path fill="#282828" d="M861.728,310.63h56.024c6.186,0,11.205-5.019,11.205-11.205s-5.019-11.205-11.205-11.205h-44.819v-48.554
			c0-6.186-5.019-11.205-11.205-11.205s-11.205,5.019-11.205,11.205v59.759C850.523,305.611,855.542,310.63,861.728,310.63z"/>
		<path fill="#282828" d="M996.185,310.63h56.024c6.186,0,11.205-5.019,11.205-11.205s-5.019-11.205-11.205-11.205h-44.819v-48.554
			c0-6.186-5.019-11.205-11.205-11.205s-11.205,5.019-11.205,11.205v59.759C984.981,305.611,989.999,310.63,996.185,310.63z"/>
		<path fill="#282828" d="M154.578,536.506h-44.819v-48.554c0-6.186-5.019-11.205-11.205-11.205
			c-6.186,0-11.205,5.019-11.205,11.205v59.759c0,6.186,5.019,11.205,11.205,11.205h56.024c6.186,0,11.205-5.019,11.205-11.205
			S160.764,536.506,154.578,536.506z"/>
		<path fill="#282828" d="M289.036,536.506h-44.819v-48.554c0-6.186-5.019-11.205-11.205-11.205
			c-6.186,0-11.205,5.019-11.205,11.205v59.759c0,6.186,5.019,11.205,11.205,11.205h56.024c6.186,0,11.205-5.019,11.205-11.205
			S295.222,536.506,289.036,536.506z"/>
		<path fill="#282828" d="M154.578,412.363h-44.819v-48.554c0-6.186-5.019-11.205-11.205-11.205
			c-6.186,0-11.205,5.019-11.205,11.205v59.759c0,6.186,5.019,11.205,11.205,11.205h56.024c6.186,0,11.205-5.019,11.205-11.205
			C165.783,417.382,160.764,412.363,154.578,412.363z"/>
		<path fill="#282828" d="M289.036,412.363h-44.819v-48.554c0-6.186-5.019-11.205-11.205-11.205
			c-6.186,0-11.205,5.019-11.205,11.205v59.759c0,6.186,5.019,11.205,11.205,11.205h56.024c6.186,0,11.205-5.019,11.205-11.205
			C300.241,417.382,295.222,412.363,289.036,412.363z"/>
		<path fill="#282828" d="M154.578,288.221h-44.819v-48.554c0-6.186-5.019-11.205-11.205-11.205
			c-6.186,0-11.205,5.019-11.205,11.205v59.759c0,6.186,5.019,11.205,11.205,11.205h56.024c6.186,0,11.205-5.019,11.205-11.205
			S160.764,288.221,154.578,288.221z"/>
		<path fill="#282828" d="M289.036,288.221h-44.819v-48.554c0-6.186-5.019-11.205-11.205-11.205
			c-6.186,0-11.205,5.019-11.205,11.205v59.759c0,6.186,5.019,11.205,11.205,11.205h56.024c6.186,0,11.205-5.019,11.205-11.205
			S295.222,288.221,289.036,288.221z"/>
		<path fill="#282828" d="M368.717,148.073h268.915c6.186,0,11.205-5.019,11.205-11.205c0-6.186-5.019-11.205-11.205-11.205H368.717
			c-6.186,0-11.205,5.019-11.205,11.205C357.512,143.054,362.531,148.073,368.717,148.073z"/>
		<path fill="#282828" d="M682.451,148.073h97.108c6.186,0,11.205-5.019,11.205-11.205c0-6.186-5.019-11.205-11.205-11.205h-97.108
			c-6.186,0-11.205,5.019-11.205,11.205C671.246,143.054,676.265,148.073,682.451,148.073z"/>
		<path fill="#282828" d="M368.717,1051.927H99.802c-6.186,0-11.205,5.019-11.205,11.205c0,6.186,5.019,11.205,11.205,11.205
			h268.915c6.186,0,11.205-5.019,11.205-11.205C379.922,1056.946,374.903,1051.927,368.717,1051.927z"/>
	</g>
</g>
</svg>
